%YAML 1.1
%TAG !u! tag:unity3d.com,2011:
--- !u!1 &1977645031307373310
GameObject:
  m_ObjectHideFlags: 0
  m_CorrespondingSourceObject: {fileID: 0}
  m_PrefabInstance: {fileID: 0}
  m_PrefabAsset: {fileID: 0}
  serializedVersion: 6
  m_Component:
  - component: {fileID: 1977645031307373308}
  - component: {fileID: 1977645031307373309}
  - component: {fileID: 1977645031307373283}
  m_Layer: 0
  m_Name: ScreenManager
  m_TagString: Untagged
  m_Icon: {fileID: 0}
  m_NavMeshLayer: 0
  m_StaticEditorFlags: 0
  m_IsActive: 1
--- !u!4 &1977645031307373308
Transform:
  m_ObjectHideFlags: 0
  m_CorrespondingSourceObject: {fileID: 0}
  m_PrefabInstance: {fileID: 0}
  m_PrefabAsset: {fileID: 0}
  m_GameObject: {fileID: 1977645031307373310}
  serializedVersion: 2
  m_LocalRotation: {x: 0, y: 0, z: 0, w: 1}
  m_LocalPosition: {x: 0, y: 0, z: 0}
  m_LocalScale: {x: 1, y: 1, z: 1}
  m_ConstrainProportionsScale: 0
  m_Children: []
  m_Father: {fileID: 0}
  m_LocalEulerAnglesHint: {x: 0, y: 0, z: 0}
--- !u!114 &1977645031307373309
MonoBehaviour:
  m_ObjectHideFlags: 0
  m_CorrespondingSourceObject: {fileID: 0}
  m_PrefabInstance: {fileID: 0}
  m_PrefabAsset: {fileID: 0}
  m_GameObject: {fileID: 1977645031307373310}
  m_Enabled: 1
  m_EditorHideFlags: 0
  m_Script: {fileID: 11500000, guid: ef6d6761551c440148f7f337f2a39985, type: 3}
  m_Name: 
  m_EditorClassIdentifier: 
  CustomInspectorXML: {fileID: 0}
  UseVariablePanelValues: 0
  DefaultPanelValues:
    ReferenceResolutionWidth: 0
    ReferenceResolutionHeight: 0
    MatchModeRatio: 0
    ApplicableScreens: []
  ResizedPanelValues:
    ReferenceResolutionWidth: 0
    ReferenceResolutionHeight: 0
    MatchModeRatio: 0
    ApplicableScreens: []
  Scrim: {fileID: 0}
  ScreenTransitionTime: 0.6
  LogToConsole: 0
  ShowDebugStack: 0
  DEBUG_SAVE_KEY: ScreenManagerShowDebug
--- !u!114 &1977645031307373283
MonoBehaviour:
  m_ObjectHideFlags: 0
  m_CorrespondingSourceObject: {fileID: 0}
  m_PrefabInstance: {fileID: 0}
  m_PrefabAsset: {fileID: 0}
  m_GameObject: {fileID: 1977645031307373310}
  m_Enabled: 1
  m_EditorHideFlags: 0
  m_Script: {fileID: 19102, guid: 0000000000000000e000000000000000, type: 0}
  m_Name: 
  m_EditorClassIdentifier: 
  m_PanelSettings: {fileID: 11400000, guid: 2fcc39bf4b66a4d24a94496821ca2ef9, type: 2}
  m_ParentUI: {fileID: 0}
  sourceAsset: {fileID: 9197481963319205126, guid: 869fdb93a46894bbea7453f3e2d94c30, type: 3}
  m_SortingOrder: 0
  m_WorldSpaceSizeMode: 1
  m_WorldSpaceWidth: 1920
  m_WorldSpaceHeight: 1080
